module gitlab.com/w732/utilities

go 1.17

require (
	github.com/golang-jwt/jwt v3.2.2+incompatible
	github.com/rs/zerolog v1.26.1
	github.com/stretchr/testify v1.7.0
	go.mongodb.org/mongo-driver v1.8.3
	golang.org/x/crypto v0.0.0-20211215165025-cf75a172585e
)

require (
	github.com/davecgh/go-spew v1.1.1 // indirect
	github.com/go-stack/stack v1.8.0 // indirect
	github.com/golang/snappy v0.0.1 // indirect
	github.com/klauspost/compress v1.13.6 // indirect
	github.com/pkg/errors v0.9.1 // indirect
	github.com/pmezard/go-difflib v1.0.0 // indirect
	github.com/xdg-go/pbkdf2 v1.0.0 // indirect
	github.com/xdg-go/scram v1.0.2 // indirect
	github.com/xdg-go/stringprep v1.0.2 // indirect
	github.com/youmark/pkcs8 v0.0.0-20181117223130-1be2e3e5546d // indirect
	golang.org/x/sync v0.0.0-20210220032951-036812b2e83c // indirect
	golang.org/x/text v0.3.6 // indirect
	gopkg.in/yaml.v3 v3.0.0-20200313102051-9f266ea9e77c // indirect
)
